{
  "kind": "collectionType",
  "collectionName": "posts",
  "info": {
    "singularName": "post",
    "pluralName": "posts",
    "displayName": "Post",
    "description": ""
  },
  "options": {
    "draftAndPublish": true
  },
  "pluginOptions": {},
  "attributes": {
    "Title": {
      "type": "string",
      "required": true,
      "unique": true,
      "minLength": 3
    },
    "Authors": {
      "type": "relation",
      "relation": "oneToMany",
      "target": "admin::user"
    },
    "Cover": {
      "type": "media",
      "multiple": false,
      "required": false,
      "allowedTypes": [
        "images"
      ]
    },
    "Content": {
      "type": "richtext",
      "required": true
    },
    "PostSEO": {
      "type": "component",
      "repeatable": true,
      "component": "seo.seo-information"
    },
    "Slug": {
      "type": "uid",
      "targetField": "Title",
      "required": true
    },
    "tags": {
      "type": "relation",
      "relation": "oneToMany",
      "target": "api::tag.tag"
    }
  }
}
